TYPE= OBJ
NB_OBJ= 2

## PLAN
## NAME
NEWYORK_PLAN
## POS
0.000000
20.000000
0.000000
## VECTOR
0.000000
0.000000
1.000000
## COLOR
fa0000
## BRILLANCE
0.800000
## EXTRA
0.000000
## LIMIT
0.000000
## LIMIT_MODE
0.000000
## REFL
0.000000
## END

## CONE
## NAME
NEWYORK_CONE
## POS
-10.000000
65.000000
40.000000
## VECTOR
0.000000
0.587785
0.809017
## COLOR
f37735
## BRILLANCE
0.000000
## EXTRA
20.000000
## LIMIT
0.000000
## LIMIT_MODE
0.000000
## REFL
0.000000
## END

